// Jest Snapshot v1, https://goo.gl/fbAQLP

exports[`renders correctly 1`] = `
<nav>
  <ul>
    <li>
      <a
        data-testid="home-link"
        href="/"
        onClick={[Function]}
      >
        Home
      </a>
    </li>
    <li>
      <a
        data-testid="category-link"
        href="/categories"
        onClick={[Function]}
      >
        Categories
      </a>
    </li>
    <li>
      <a
        data-testid="search-link"
        href="/search"
        onClick={[Function]}
      >
        Search
      </a>
    </li>
    <li>
      <a
        data-testid="jokes-link"
        href="/jokes"
        onClick={[Function]}
      >
        Jokes
      </a>
    </li>
  </ul>
</nav>
`;
